C:\Users\joaop\OneDrive - Dawson College\Courses\Fall 2020 - S5\Data Comm and Net\Labs\Lab1\EchoClientJavaFXGui\src\main\java\com\mycompany\echoclientjavafxgui\MyUtility.java
C:\Users\joaop\OneDrive - Dawson College\Courses\Fall 2020 - S5\Data Comm and Net\Labs\Lab1\EchoClientJavaFXGui\src\main\java\com\mycompany\echoclientjavafxgui\EchoClientJavaFXGui.java
C:\Users\joaop\OneDrive - Dawson College\Courses\Fall 2020 - S5\Data Comm and Net\Labs\Lab1\EchoClientJavaFXGui\src\main\java\module-info.java
